{
  "count": 465,
  "next": "https://rebrickable.com/api/v3/lego/themes/?page=2&page_size=10",
  "previous": null,
  "results": [
    {
      "id": 1,
      "parent_id": null,
      "name": "Technic"
    },
    {
      "id": 3,
      "parent_id": 1,
      "name": "Competition"
    },
    {
      "id": 4,
      "parent_id": 1,
      "name": "Expert Builder"
    },
    {
      "id": 16,
      "parent_id": 1,
      "name": "RoboRiders"
    },
    {
      "id": 17,
      "parent_id": 1,
      "name": "Speed Slammers"
    },
    {
      "id": 18,
      "parent_id": 1,
      "name": "Star Wars"
    },
    {
      "id": 19,
      "parent_id": 1,
      "name": "Supplemental"
    },
    {
      "id": 20,
      "parent_id": 1,
      "name": "Throwbot Slizer"
    },
    {
      "id": 21,
      "parent_id": 1,
      "name": "Universal Building Set"
    },
    {
      "id": 22,
      "parent_id": null,
      "name": "Creator"
    }
  ]
}
